1455812018,user2,http://ru.wikipedia.org,100
1455812019,user10,http://hh.ru,30
1455812968,user3,http://google.com,60
1455812411,user10,http://hh.ru,90
1455812684,user3,http://vk.com,50
1455812419,user10,http://hh.ru,60
1455812419,user10,http://hh.ru,10
1455812419,user10,http://hh.ru,15
1455812419,user10,http://hh.ru,88
